{
  "id": "germany",
  "name": "Germany",
  "pieces": [
    {
      "length": 100
    },
    {
      "length": 100,
      "switch": true
    },
    {
      "radius": 50,
      "angle": 45
    },
    {
      "radius": 50,
      "angle": 45
    },
    {
      "radius": 50,
      "angle": 45
    },
    {
      "length": 50
    },
    {
      "radius": 50,
      "angle": -45
    },
    {
      "radius": 50,
      "angle": -45
    },
    {
      "radius": 50,
      "angle": -45
    },
    {
      "length": 50
    },
    {
      "radius": 50,
      "angle": -45
    },
    {
      "radius": 50,
      "angle": -45
    },
    {
      "radius": 100,
      "angle": -22.5
    },
    {
      "radius": 50,
      "angle": 45
    },
    {
      "length": 100,
      "switch": true
    },
    {
      "length": 100
    },
    {
      "radius": 50,
      "angle": -45
    },
    {
      "length": 50
    },
    {
      "radius": 50,
      "angle": 45
    },
    {
      "radius": 50,
      "angle": 45
    },
    {
      "radius": 100,
      "angle": 22.5
    },
    {
      "length": 100,
      "switch": true
    },
    {
      "length": 100
    },
    {
      "radius": 50,
      "angle": 45
    },
    {
      "radius": 50,
      "angle": 45
    },
    {
      "radius": 50,
      "angle": 45
    },
    {
      "radius": 50,
      "angle": 45
    },
    {
      "length": 100,
      "switch": true
    },
    {
      "radius": 50,
      "angle": -45
    },
    {
      "radius": 50,
      "angle": -45
    },
    {
      "length": 50
    },
    {
      "radius": 100,
      "angle": 22.5
    },
    {
      "length": 100
    },
    {
      "length": 50
    },
    {
      "radius": 100,
      "angle": -22.5
    },
    {
      "radius": 100,
      "angle": -22.5
    },
    {
      "length": 100,
      "switch": true
    },
    {
      "radius": 50,
      "angle": 45
    },
    {
      "radius": 50,
      "angle": 45
    },
    {
      "radius": 100,
      "angle": 22.5
    },
    {
      "length": 100
    },
    {
      "length": 100
    },
    {
      "length": 100
    },
    {
      "radius": 100,
      "angle": 45
    },
    {
      "length": 70
    },
    {
      "length": 100,
      "switch": true
    },
    {
      "radius": 50,
      "angle": -45
    },
    {
      "radius": 50,
      "angle": -45
    },
    {
      "radius": 100,
      "angle": 45
    },
    {
      "radius": 100,
      "angle": 45
    },
    {
      "length": 50
    },
    {
      "radius": 100,
      "angle": 45
    },
    {
      "radius": 100,
      "angle": 45
    },
    {
      "radius": 100,
      "angle": 45,
      "switch": true
    },
    {
      "length": 100
    },
    {
      "length": 100
    },
    {
      "length": 59
    }
  ],
  "lanes": [
    {
      "distanceFromCenter": -10,
      "index": 0
    },
    {
      "distanceFromCenter": 10,
      "index": 1
    }
  ],
  "startingPoint": {
    "position": {
      "x": -12,
      "y": 192
    },
    "angle": -90
  }
}