{
  "id": "suzuka",
  "name": "Suzuka",
  "pieces": [
    {
      "length": 100
    },
    {
      "length": 100
    },
    {
      "length": 32
    },
    {
      "radius": 100,
      "angle": 45,
      "switch": true
    },
    {
      "radius": 200,
      "angle": 22.5
    },
    {
      "radius": 100,
      "angle": 45
    },
    {
      "radius": 100,
      "angle": 45,
      "switch": true
    },
    {
      "radius": 100,
      "angle": 22.5
    },
    {
      "length": 20
    },
    {
      "radius": 50,
      "angle": -45
    },
    {
      "length": 20
    },
    {
      "radius": 50,
      "angle": 45
    },
    {
      "radius": 50,
      "angle": 45
    },
    {
      "length": 20
    },
    {
      "radius": 50,
      "angle": -45
    },
    {
      "radius": 50,
      "angle": -45
    },
    {
      "length": 25
    },
    {
      "radius": 50,
      "angle": 45
    },
    {
      "radius": 50,
      "angle": 45
    },
    {
      "length": 25
    },
    {
      "radius": 50,
      "angle": -45
    },
    {
      "radius": 50,
      "angle": -45
    },
    {
      "length": 30
    },
    {
      "radius": 100,
      "angle": -45
    },
    {
      "radius": 100,
      "angle": -45
    },
    {
      "length": 100,
      "switch": true
    },
    {
      "radius": 50,
      "angle": 45
    },
    {
      "radius": 50,
      "angle": 45
    },
    {
      "length": 30
    },
    {
      "radius": 50,
      "angle": 45
    },
    {
      "radius": 50,
      "angle": 45
    },
    {
      "length": 100,
      "switch": true
    },
    {
      "length": 100
    },
    {
      "radius": 200,
      "angle": 22.5
    },
    {
      "length": 40
    },
    {
      "length": 100
    },
    {
      "length": 100,
      "switch": true
    },
    {
      "radius": 50,
      "angle": -45
    },
    {
      "radius": 50,
      "angle": -45
    },
    {
      "radius": 50,
      "angle": -45
    },
    {
      "radius": 50,
      "angle": -45
    },
    {
      "length": 80
    },
    {
      "radius": 100,
      "angle": 45,
      "switch": true
    },
    {
      "radius": 100,
      "angle": 45
    },
    {
      "radius": 200,
      "angle": 22.5
    },
    {
      "length": 50
    },
    {
      "radius": 100,
      "angle": -45
    },
    {
      "radius": 100,
      "angle": -45
    },
    {
      "radius": 100,
      "angle": -45
    },
    {
      "radius": 100,
      "angle": -45
    },
    {
      "radius": 100,
      "angle": -45,
      "switch": true
    },
    {
      "length": 100
    },
    {
      "length": 100
    },
    {
      "length": 100
    },
    {
      "length": 100,
      "bridge": true
    },
    {
      "length": 20
    },
    {
      "radius": 100,
      "angle": -45,
      "switch": true
    },
    {
      "length": 85
    },
    {
      "radius": 50,
      "angle": 45
    },
    {
      "radius": 50,
      "angle": -45
    },
    {
      "radius": 50,
      "angle": 45
    },
    {
      "radius": 50,
      "angle": 45
    },
    {
      "length": 100,
      "switch": true
    },
    {
      "length": 100
    },
    {
      "length": 33
    }
  ],
  "lanes": [
    {
      "distanceFromCenter": -10,
      "index": 0
    },
    {
      "distanceFromCenter": 10,
      "index": 1
    }
  ],
  "startingPoint": {
    "position": {
      "x": -320,
      "y": -224
    },
    "angle": 85
  }
}